…
    ## Calculating cluster 5

    ## Calculating cluster 6

    ## Calculating cluster 7

    ## Calculating cluster 8

    ie.integrated.markers %>% group_by(cluster) %>% top_n(n = 10, wt = avg_logFC)

    ## Registered S3 method overwritten by 'cli':
    ##   method     from    
    ##   print.boxx spatstat

    ## # A tibble: 90 x 7
    ## # Groups:   cluster [9]
    ##        p_val avg_logFC pct.1 pct.2 p_val_adj cluster gene       
    ##        <dbl>     <dbl> <dbl> <dbl>     <dbl> <fct>   <chr>      
    ##  1 5.14e-196     0.473 0.831 0.739 1.03e-192 0       mm10-Mcm6  
    ##  2 6.31e-160     0.344 0.966 0.898 1.26e-156 0       mm10-Clca3b
    ##  3 1.43e-140     0.386 0.872 0.786 2.86e-137 0       mm10-Kcnn4 
    ##  4 4.80e-138     0.363 0.864 0.799 9.59e-135 0       mm10-Dut   
    ##  5 2.83e-121     0.327 0.854 0.751 5.65e-118 0       mm10-Siva1 
    ##  6 7.13e-114     0.355 0.768 0.679 1.43e-110 0       mm10-Mcm7  
    ##  7 5.16e-113     0.330 0.836 0.737 1.03e-109 0       mm10-Dmbt1 
    ##  8 4.44e-105     0.388 0.82  0.782 8.88e-102 0       mm10-Pcna  
    ##  9 6.71e- 78     0.324 0.752 0.696 1.34e- 74 0       mm10-Nasp  
    ## 10 2.72e- 71     0.326 0.641 0.549 5.44e- 68 0       mm10-Ung   
    ## # … with 80 more rows
…
